wave/controller.vcd
$date
	Thu Apr 29 23:46:04 2021
$end
$version
	Icarus Verilog
$end
$timescale
	1ps
$end
$scope module controller_tb $end
$var wire 1 ! pgt $end
$var wire 4 " out [3:0] $end
$var wire 1 # loadn $end
$var reg 1 $ clk $end
$var reg 1 % enablen $end
$var reg 10 & keypad [9:0] $end
$scope module DUT $end
$var wire 1 $ clock $end
$var wire 1 % enablen $end
$var wire 10 ' keypad [9:0] $end
$var wire 1 ( w2 $end
$var wire 1 ) w1 $end
$var wire 1 ! pgt $end
$var wire 4 * out [3:0] $end
$var wire 1 # loadn $end
$scope module converter $end
$var wire 1 $ clk $end
$var reg 8 + cont [7:0] $end
$var reg 1 ( new_clk $end
$upscope $end
$scope module delay $end
$var wire 1 $ clk $end
$var wire 1 # clr $end
$var reg 3 , counter [2:0] $end
$var reg 1 ) out $end
$upscope $end
$scope module encoder $end
$var wire 10 - d_in [9:0] $end
$var wire 1 % enable $end
$var wire 1 # loadn $end
$var wire 4 . d_out [3:0] $end
$upscope $end
$scope module mux $end
$var wire 1 % Sel $end
$var wire 1 ) a $end
$var wire 1 ( b $end
$var wire 1 ! out $end
$upscope $end
$upscope $end
$upscope $end
$enddefinitions $end
#0
$dumpvars
b1001 .
b1000000000 -
b0 ,
b1 +
b1001 *
0)
0(
b1000000000 '
b1000000000 &
1%
1$
1#
b1001 "
0!
$end
#5000000000
0$
#10000000000
b10 +
1$
#15000000000
0$
#20000000000
b11 +
1$
#25000000000
0$
#30000000000
b100 +
1$
#35000000000
0$
#40000000000
b101 +
1$
#45000000000
0$
#50000000000
b110 +
1$
#55000000000
0$
#60000000000
b111 +
1$
#65000000000
0$
#70000000000
b1000 +
1$
#75000000000
0$
#80000000000
b1001 +
1$
#85000000000
0$
#90000000000
b1010 +
1$
#95000000000
0$
#100000000000
b1011 +
1$
#105000000000
0$
#110000000000
b1100 +
b0 "
b0 *
b0 .
1$
b0 &
b0 '
b0 -
#115000000000
0$
#120000000000
b1101 +
1$
#125000000000
0$
#130000000000
b1110 +
1$
#135000000000
0$
#140000000000
b1111 +
1$
#145000000000
0$
#150000000000
b10000 +
1$
#155000000000
0$
#160000000000
b10001 +
1$
#165000000000
0$
#170000000000
b10010 +
1$
#175000000000
0$
#180000000000
b10011 +
1$
#185000000000
0$
#190000000000
b10100 +
1$
#195000000000
0$
#200000000000
b10101 +
1$
#205000000000
0$
#210000000000
b10110 +
b1000 "
b1000 *
b1000 .
1$
b100000000 &
b100000000 '
b100000000 -
#215000000000
0$
#220000000000
b10111 +
1$
#225000000000
0$
#230000000000
b11000 +
1$
#235000000000
0$
#240000000000
b11001 +
1$
#245000000000
0$
#250000000000
b11010 +
1$
#255000000000
0$
#260000000000
b11011 +
1$
#265000000000
0$
#270000000000
b11100 +
1$
#275000000000
0$
#280000000000
b11101 +
1$
#285000000000
0$
#290000000000
b11110 +
1$
#295000000000
0$
#300000000000
b11111 +
1$
#305000000000
0$
#310000000000
b100000 +
b0 "
b0 *
b0 .
1$
b0 &
b0 '
b0 -
#315000000000
0$
#320000000000
b100001 +
1$
#325000000000
0$
#330000000000
b100010 +
1$
#335000000000
0$
#340000000000
b100011 +
1$
#345000000000
0$
#350000000000
b100100 +
1$
#355000000000
0$
#360000000000
b100101 +
1$
#365000000000
0$
#370000000000
b100110 +
1$
#375000000000
0$
#380000000000
b100111 +
1$
#385000000000
0$
#390000000000
b101000 +
1$
#395000000000
0$
#400000000000
b101001 +
1$
#405000000000
0$
#410000000000
b101010 +
b111 "
b111 *
b111 .
1$
b10000000 &
b10000000 '
b10000000 -
#415000000000
0$
#420000000000
b101011 +
1$
#425000000000
0$
#430000000000
b101100 +
1$
#435000000000
0$
#440000000000
b101101 +
1$
#445000000000
0$
#450000000000
b101110 +
1$
#455000000000
0$
#460000000000
b101111 +
1$
#465000000000
0$
#470000000000
b110000 +
1$
#475000000000
0$
#480000000000
b110001 +
1$
#485000000000
0$
#490000000000
1!
1(
b0 +
1$
#495000000000
0$
#500000000000
b1 +
1$
#505000000000
0$
#510000000000
b10 +
b0 "
b0 *
b0 .
1$
b0 &
b0 '
b0 -
#515000000000
0$
#520000000000
b11 +
1$
#525000000000
0$
#530000000000
b100 +
1$
#535000000000
0$
#540000000000
b101 +
1$
#545000000000
0$
#550000000000
b110 +
1$
#555000000000
0$
#560000000000
b111 +
1$
#565000000000
0$
#570000000000
b1000 +
1$
#575000000000
0$
#580000000000
b1001 +
1$
#585000000000
0$
#590000000000
b1010 +
1$
#595000000000
0$
#600000000000
b1011 +
1$
#605000000000
0$
#610000000000
b1100 +
b110 "
b110 *
b110 .
1$
b1000000 &
b1000000 '
b1000000 -
#615000000000
0$
#620000000000
b1101 +
1$
#625000000000
0$
#630000000000
b1110 +
1$
#635000000000
0$
#640000000000
b1111 +
1$
#645000000000
0$
#650000000000
b10000 +
1$
#655000000000
0$
#660000000000
b10001 +
1$
#665000000000
0$
#670000000000
b10010 +
1$
#675000000000
0$
#680000000000
b10011 +
1$
#685000000000
0$
#690000000000
b10100 +
1$
#695000000000
0$
#700000000000
b10101 +
1$
#705000000000
0$
#710000000000
b10110 +
b0 "
b0 *
b0 .
1$
b0 &
b0 '
b0 -
#715000000000
0$
#720000000000
b10111 +
1$
#725000000000
0$
#730000000000
b11000 +
1$
#735000000000
0$
#740000000000
b11001 +
1$
#745000000000
0$
#750000000000
b11010 +
1$
#755000000000
0$
#760000000000
b11011 +
1$
#765000000000
0$
#770000000000
b11100 +
1$
#775000000000
0$
#780000000000
b11101 +
1$
#785000000000
0$
#790000000000
b11110 +
1$
#795000000000
0$
#800000000000
b11111 +
1$
#805000000000
0$
#810000000000
b100000 +
b101 "
b101 *
b101 .
1$
b100000 &
b100000 '
b100000 -
#815000000000
0$
#820000000000
b100001 +
1$
#825000000000
0$
#830000000000
b100010 +
1$
#835000000000
0$
#840000000000
b100011 +
1$
#845000000000
0$
#850000000000
b100100 +
1$
#855000000000
0$
#860000000000
b100101 +
1$
#865000000000
0$
#870000000000
b100110 +
1$
#875000000000
0$
#880000000000
b100111 +
1$
#885000000000
0$
#890000000000
b101000 +
1$
#895000000000
0$
#900000000000
b101001 +
1$
#905000000000
0$
#910000000000
b101010 +
b0 "
b0 *
b0 .
1$
b0 &
b0 '
b0 -
#915000000000
0$
#920000000000
b101011 +
1$
#925000000000
0$
#930000000000
b101100 +
1$
#935000000000
0$
#940000000000
b101101 +
1$
#945000000000
0$
#950000000000
b101110 +
1$
#955000000000
0$
#960000000000
b101111 +
1$
#965000000000
0$
#970000000000
b110000 +
1$
#975000000000
0$
#980000000000
b110001 +
1$
#985000000000
0$
#990000000000
0!
0(
b0 +
1$
#995000000000
0$
#1000000000000
b1 +
1$
#1005000000000
0$
#1010000000000
b10 +
b100 "
b100 *
b100 .
1$
b10000 &
b10000 '
b10000 -
#1015000000000
0$
#1020000000000
b11 +
1$
#1025000000000
0$
#1030000000000
b100 +
1$
#1035000000000
0$
#1040000000000
b101 +
1$
#1045000000000
0$
#1050000000000
b110 +
1$
#1055000000000
0$
#1060000000000
b111 +
1$
#1065000000000
0$
#1070000000000
b1000 +
1$
#1075000000000
0$
#1080000000000
b1001 +
1$
#1085000000000
0$
#1090000000000
b1010 +
1$
#1095000000000
0$
#1100000000000
b1011 +
1$
#1105000000000
0$
#1110000000000
b1100 +
b0 "
b0 *
b0 .
1$
b0 &
b0 '
b0 -
#1115000000000
0$
#1120000000000
b1101 +
1$
#1125000000000
0$
#1130000000000
b1110 +
1$
#1135000000000
0$
#1140000000000
b1111 +
1$
#1145000000000
0$
#1150000000000
b10000 +
1$
#1155000000000
0$
#1160000000000
b10001 +
1$
#1165000000000
0$
#1170000000000
b10010 +
1$
#1175000000000
0$
#1180000000000
b10011 +
1$
#1185000000000
0$
#1190000000000
b10100 +
1$
#1195000000000
0$
#1200000000000
b10101 +
1$
#1205000000000
0$
#1210000000000
b10110 +
b11 "
b11 *
b11 .
1$
b1000 &
b1000 '
b1000 -
#1215000000000
0$
#1220000000000
b10111 +
1$
#1225000000000
0$
#1230000000000
b11000 +
1$
#1235000000000
0$
#1240000000000
b11001 +
1$
#1245000000000
0$
#1250000000000
b11010 +
1$
#1255000000000
0$
#1260000000000
b11011 +
1$
#1265000000000
0$
#1270000000000
b11100 +
1$
#1275000000000
0$
#1280000000000
b11101 +
1$
#1285000000000
0$
#1290000000000
b11110 +
1$
#1295000000000
0$
#1300000000000
b11111 +
1$
#1305000000000
0$
#1310000000000
b100000 +
b0 "
b0 *
b0 .
1$
b0 &
b0 '
b0 -
#1315000000000
0$
#1320000000000
b100001 +
1$
#1325000000000
0$
#1330000000000
b100010 +
1$
#1335000000000
0$
#1340000000000
b100011 +
1$
#1345000000000
0$
#1350000000000
b100100 +
1$
#1355000000000
0$
#1360000000000
b100101 +
1$
#1365000000000
0$
#1370000000000
b100110 +
1$
#1375000000000
0$
#1380000000000
b100111 +
1$
#1385000000000
0$
#1390000000000
b101000 +
1$
#1395000000000
0$
#1400000000000
b101001 +
1$
#1405000000000
0$
#1410000000000
b101010 +
b10 "
b10 *
b10 .
1$
b100 &
b100 '
b100 -
#1415000000000
0$
#1420000000000
b101011 +
1$
#1425000000000
0$
#1430000000000
b101100 +
1$
#1435000000000
0$
#1440000000000
b101101 +
1$
#1445000000000
0$
#1450000000000
b101110 +
1$
#1455000000000
0$
#1460000000000
b101111 +
1$
#1465000000000
0$
#1470000000000
b110000 +
1$
#1475000000000
0$
#1480000000000
b110001 +
1$
#1485000000000
0$
#1490000000000
1!
1(
b0 +
1$
#1495000000000
0$
#1500000000000
b1 +
1$
#1505000000000
0$
#1510000000000
b10 +
b0 "
b0 *
b0 .
1$
b0 &
b0 '
b0 -
#1515000000000
0$
#1520000000000
b11 +
1$
#1525000000000
0$
#1530000000000
b100 +
1$
#1535000000000
0$
#1540000000000
b101 +
1$
#1545000000000
0$
#1550000000000
b110 +
1$
#1555000000000
0$
#1560000000000
b111 +
1$
#1565000000000
0$
#1570000000000
b1000 +
1$
#1575000000000
0$
#1580000000000
b1001 +
1$
#1585000000000
0$
#1590000000000
b1010 +
1$
#1595000000000
0$
#1600000000000
b1011 +
1$
#1605000000000
0$
#1610000000000
b1100 +
b1 "
b1 *
b1 .
1$
b10 &
b10 '
b10 -
#1615000000000
0$
#1620000000000
b1101 +
1$
#1625000000000
0$
#1630000000000
b1110 +
1$
#1635000000000
0$
#1640000000000
b1111 +
1$
#1645000000000
0$
#1650000000000
b10000 +
1$
#1655000000000
0$
#1660000000000
b10001 +
1$
#1665000000000
0$
#1670000000000
b10010 +
1$
#1675000000000
0$
#1680000000000
b10011 +
1$
#1685000000000
0$
#1690000000000
b10100 +
1$
#1695000000000
0$
#1700000000000
b10101 +
1$
#1705000000000
0$
#1710000000000
b10110 +
b0 "
b0 *
b0 .
1$
b0 &
b0 '
b0 -
#1715000000000
0$
#1720000000000
b10111 +
1$
#1725000000000
0$
#1730000000000
b11000 +
1$
#1735000000000
0$
#1740000000000
b11001 +
1$
#1745000000000
0$
#1750000000000
b11010 +
1$
#1755000000000
0$
#1760000000000
b11011 +
1$
#1765000000000
0$
#1770000000000
b11100 +
1$
#1775000000000
0$
#1780000000000
b11101 +
1$
#1785000000000
0$
#1790000000000
b11110 +
1$
#1795000000000
0$
#1800000000000
b11111 +
1$
#1805000000000
0$
#1810000000000
b100000 +
1$
b1 &
b1 '
b1 -
#1815000000000
0$
#1820000000000
b100001 +
1$
#1825000000000
0$
#1830000000000
b100010 +
1$
#1835000000000
0$
#1840000000000
b100011 +
1$
#1845000000000
0$
#1850000000000
b100100 +
1$
#1855000000000
0$
#1860000000000
b100101 +
1$
#1865000000000
0$
#1870000000000
b100110 +
1$
#1875000000000
0$
#1880000000000
b100111 +
1$
#1885000000000
0$
#1890000000000
b101000 +
1$
#1895000000000
0$
#1900000000000
b101001 +
1$
#1905000000000
0$
#1910000000000
b101010 +
1$
b0 &
b0 '
b0 -
#1915000000000
0$
#1920000000000
b101011 +
1$
#1925000000000
0$
#1930000000000
b101100 +
1$
#1935000000000
0$
#1940000000000
b101101 +
1$
#1945000000000
0$
#1950000000000
b101110 +
1$
#1955000000000
0$
#1960000000000
b101111 +
1$
#1965000000000
0$
#1970000000000
b110000 +
1$
#1975000000000
0$
#1980000000000
b110001 +
1$
#1985000000000
0$
#1990000000000
0!
0(
b0 +
1$
#1995000000000
0$
#2000000000000
b1 +
1$
#2005000000000
0$
#2010000000000
b10 +
1$
