wave/micro.vcd
$date
	Fri Apr 30 03:16:46 2021
$end
$version
	Icarus Verilog
$end
$timescale
	1ps
$end
$scope module micro_tb $end
$var wire 7 ! sec_tens_segs [6:0] $end
$var wire 7 " sec_ones_segs [6:0] $end
$var wire 7 # min_segs [6:0] $end
$var wire 1 $ mag_on $end
$var reg 1 % clearn $end
$var reg 1 & clock $end
$var reg 1 ' door_closed $end
$var reg 10 ( keypad [9:0] $end
$var reg 1 ) startn $end
$var reg 1 * stopn $end
$scope module DUT $end
$var wire 1 % clearn $end
$var wire 1 & clock $end
$var wire 1 ' door_closed $end
$var wire 10 + keypad [9:0] $end
$var wire 1 $ mag_on $end
$var wire 1 ) startn $end
$var wire 1 * stopn $end
$var wire 1 , timer_done $end
$var wire 7 - sec_tens_segs [6:0] $end
$var wire 4 . sec_tens [3:0] $end
$var wire 7 / sec_ones_segs [6:0] $end
$var wire 4 0 sec_ones [3:0] $end
$var wire 1 1 pgt_to_timer_clock $end
$var wire 4 2 mins [3:0] $end
$var wire 7 3 min_segs [6:0] $end
$var wire 1 4 magnetron $end
$var wire 1 5 loadn $end
$var wire 4 6 d_to_data [3:0] $end
$scope module controlador $end
$var wire 1 & clock $end
$var wire 10 7 keypad [9:0] $end
$var wire 1 8 w2 $end
$var wire 1 9 w1 $end
$var wire 1 1 pgt $end
$var wire 4 : out [3:0] $end
$var wire 1 5 loadn $end
$var wire 1 4 enablen $end
$scope module converter $end
$var wire 1 & clk $end
$var reg 8 ; cont [7:0] $end
$var reg 1 8 new_clk $end
$upscope $end
$scope module delay $end
$var wire 1 & clk $end
$var wire 1 5 clr $end
$var reg 3 < counter [2:0] $end
$var reg 1 9 out $end
$upscope $end
$scope module encoder $end
$var wire 10 = d_in [9:0] $end
$var wire 1 5 loadn $end
$var wire 1 4 enable $end
$var wire 4 > d_out [3:0] $end
$upscope $end
$scope module mux $end
$var wire 1 9 a $end
$var wire 1 8 b $end
$var wire 1 1 out $end
$var wire 1 4 Sel $end
$upscope $end
$upscope $end
$scope module decoder_device $end
$var wire 7 ? sec_tens_segs [6:0] $end
$var wire 4 @ sec_tens [3:0] $end
$var wire 7 A sec_ones_segs [6:0] $end
$var wire 4 B sec_ones [3:0] $end
$var wire 7 C min_segs [6:0] $end
$var wire 4 D min [3:0] $end
$var wire 1 E ground $end
$var wire 1 F en_secs_tens $end
$var wire 1 G en_secs_ones $end
$scope module Dec1 $end
$var wire 1 E en_out $end
$var wire 1 G en_in $end
$var wire 7 H decoder_out [6:0] $end
$var wire 4 I binary_in [3:0] $end
$upscope $end
$scope module Dec2 $end
$var wire 1 G en_out $end
$var wire 1 F en_in $end
$var wire 7 J decoder_out [6:0] $end
$var wire 4 K binary_in [3:0] $end
$upscope $end
$scope module Dec3 $end
$var wire 1 L en_in $end
$var wire 1 F en_out $end
$var wire 7 M decoder_out [6:0] $end
$var wire 4 N binary_in [3:0] $end
$upscope $end
$upscope $end
$scope module magnetron_device $end
$var wire 1 % clearn $end
$var wire 1 ' doorclosed $end
$var wire 1 ) startn $end
$var wire 1 * stopn $end
$var wire 1 , timerdone $end
$var wire 1 4 mag_on $end
$var wire 1 O S $end
$var wire 1 P R $end
$scope module DUT1 $end
$var wire 1 % clearN $end
$var wire 1 ' door_closed $end
$var wire 1 ) startN $end
$var wire 1 * stopN $end
$var wire 1 , timer_done $end
$var reg 1 P R $end
$var reg 1 O S $end
$upscope $end
$scope module DUT2 $end
$var wire 1 P R $end
$var wire 1 O S $end
$var reg 1 4 mag_on $end
$upscope $end
$upscope $end
$scope module time_device $end
$var wire 1 1 clock $end
$var wire 1 % clrn $end
$var wire 4 Q data [3:0] $end
$var wire 1 4 en $end
$var wire 1 5 loadn $end
$var wire 1 R zero3 $end
$var wire 1 S zero2 $end
$var wire 1 T zero1 $end
$var wire 1 U useless $end
$var wire 1 V tens_to_min $end
$var wire 1 W sec_to_tens $end
$var wire 4 X sec_tens [3:0] $end
$var wire 4 Y sec_ones [3:0] $end
$var wire 4 Z mins [3:0] $end
$var reg 1 , zero $end
$scope module minutes $end
$var wire 1 1 clk $end
$var wire 1 % clrn $end
$var wire 1 5 loadn $end
$var wire 1 U tc $end
$var wire 1 V en $end
$var wire 4 [ data [3:0] $end
$var reg 4 \ out [3:0] $end
$var reg 1 R zero $end
$upscope $end
$scope module seconds $end
$var wire 1 1 clk $end
$var wire 1 % clrn $end
$var wire 4 ] data [3:0] $end
$var wire 1 4 en $end
$var wire 1 5 loadn $end
$var wire 1 W tc $end
$var reg 4 ^ out [3:0] $end
$var reg 1 T zero $end
$upscope $end
$scope module ten_secs $end
$var wire 1 1 clk $end
$var wire 1 % clrn $end
$var wire 4 _ data [3:0] $end
$var wire 1 W en $end
$var wire 1 5 loadn $end
$var wire 1 V tc $end
$var reg 4 ` out [3:0] $end
$var reg 1 S zero $end
$upscope $end
$upscope $end
$upscope $end
$upscope $end
$enddefinitions $end
#0
$dumpvars
b0 `
b0 _
b0 ^
b0 ]
b0 \
b0 [
b0 Z
b0 Y
b0 X
0W
0V
0U
xT
xS
xR
b0 Q
1P
0O
b0 N
b0 M
0L
b0 K
b0 J
b0 I
b0 H
0G
0F
0E
b0 D
b0 C
b0 B
b0 A
b0 @
b0 ?
b0 >
b1 =
b0 <
b0 ;
b0 :
x9
08
b1 7
b0 6
05
04
b0 3
b0 2
x1
b0 0
b0 /
b0 .
b0 -
x,
b1 +
1*
1)
b1 (
0'
0&
1%
0$
b0 #
b0 "
b0 !
$end
#5000000000
01
09
b1 <
b1 ;
1&
#10000000000
0&
#15000000000
b10 ;
b10 <
1&
#20000000000
0&
#25000000000
b11 <
b11 ;
1&
#30000000000
0&
#35000000000
b100 ;
b100 <
1&
#40000000000
0&
#45000000000
1,
1T
1S
1R
11
19
b101 <
b101 ;
1&
#50000000000
15
0&
b0 (
b0 +
b0 7
b0 =
#55000000000
01
b110 ;
b0 <
09
1&
#60000000000
0&
#65000000000
b111 ;
1&
#70000000000
0&
#75000000000
b1000 ;
1&
#80000000000
0&
#85000000000
b1001 ;
1&
#90000000000
0&
#95000000000
b1010 ;
1&
#100000000000
0&
#105000000000
b1011 ;
1&
#110000000000
0&
#115000000000
b1100 ;
1&
#120000000000
0&
#125000000000
b1101 ;
1&
#130000000000
05
b1001 6
b1001 :
b1001 >
b1001 Q
b1001 ]
0&
b1000000000 (
b1000000000 +
b1000000000 7
b1000000000 =
#135000000000
b1110 ;
b1 <
1&
#140000000000
0&
#145000000000
b10 <
b1111 ;
1&
#150000000000
0&
#155000000000
b10000 ;
b11 <
1&
#160000000000
0&
#165000000000
b100 <
b10001 ;
1&
#170000000000
0&
#175000000000
b1111011 "
b1111011 /
b1111011 A
b1111011 H
1E
0,
0T
b1001 0
b1001 B
b1001 I
b1001 Y
b1001 ^
b1001 _
11
b10010 ;
19
b101 <
1&
#180000000000
15
b0 6
b0 :
b0 >
b0 Q
b0 ]
0&
b0 (
b0 +
b0 7
b0 =
#185000000000
01
b0 <
09
b10011 ;
1&
#190000000000
0&
#195000000000
b10100 ;
1&
#200000000000
0&
#205000000000
b10101 ;
1&
#210000000000
0&
#215000000000
b10110 ;
1&
#220000000000
0&
#225000000000
b10111 ;
1&
#230000000000
0&
#235000000000
b11000 ;
1&
#240000000000
0&
#245000000000
b11001 ;
1&
#250000000000
0&
#255000000000
b11010 ;
1&
#260000000000
05
b1001 6
b1001 :
b1001 >
b1001 Q
b1001 ]
0&
b1000000000 (
b1000000000 +
b1000000000 7
b1000000000 =
#265000000000
b1 <
b11011 ;
1&
#270000000000
0&
#275000000000
b11100 ;
b10 <
1&
#280000000000
0&
#285000000000
b11 <
b11101 ;
1&
#290000000000
0&
#295000000000
b11110 ;
b100 <
1&
#300000000000
0&
#305000000000
b1111011 !
b1111011 -
b1111011 ?
b1111011 J
1G
0S
b1001 .
b1001 @
b1001 K
b1001 X
b1001 [
b1001 `
11
19
b101 <
b11111 ;
1&
#310000000000
15
b0 6
b0 :
b0 >
b0 Q
b0 ]
0&
b0 (
b0 +
b0 7
b0 =
#315000000000
01
b100000 ;
b0 <
09
1&
#320000000000
0&
#325000000000
b100001 ;
1&
#330000000000
0&
#335000000000
b100010 ;
1&
#340000000000
0&
#345000000000
b100011 ;
1&
#350000000000
0&
#355000000000
b100100 ;
1&
#360000000000
0&
#365000000000
b100101 ;
1&
#370000000000
0&
#375000000000
b100110 ;
1&
#380000000000
0&
#385000000000
b100111 ;
1&
#390000000000
0&
#395000000000
b101000 ;
1&
#400000000000
0&
#405000000000
b101001 ;
1&
#410000000000
0&
#415000000000
b101010 ;
1&
#420000000000
0&
#425000000000
b101011 ;
1&
#430000000000
0&
#435000000000
b101100 ;
1&
#440000000000
0&
#445000000000
b101101 ;
1&
#450000000000
0&
#455000000000
b101110 ;
1&
#460000000000
0&
#465000000000
b101111 ;
1&
#470000000000
0&
#475000000000
b110000 ;
1&
#480000000000
0&
#485000000000
b110001 ;
1&
#490000000000
0&
#495000000000
18
b0 ;
1&
#500000000000
0&
#505000000000
b1 ;
1&
#510000000000
0&
0)
#515000000000
b10 ;
1&
#520000000000
0&
#525000000000
b11 ;
1&
#530000000000
0&
#535000000000
b100 ;
1&
#540000000000
0&
#545000000000
b101 ;
1&
#550000000000
0&
#555000000000
b110 ;
1&
#560000000000
0&
#565000000000
b111 ;
1&
#570000000000
0&
#575000000000
b1000 ;
1&
#580000000000
0&
#585000000000
b1001 ;
1&
#590000000000
0&
#595000000000
b1010 ;
1&
#600000000000
0&
#605000000000
b1011 ;
1&
#610000000000
b1111111 "
b1111111 /
b1111111 A
b1111111 H
b1000 0
b1000 B
b1000 I
b1000 Y
b1000 ^
b1000 _
11
1$
14
0P
1O
0&
1'
#615000000000
b1100 ;
1&
#620000000000
0&
#625000000000
b1101 ;
1&
#630000000000
0&
#635000000000
b1110 ;
1&
#640000000000
0&
#645000000000
b1111 ;
1&
#650000000000
0&
#655000000000
b10000 ;
1&
#660000000000
0&
#665000000000
b10001 ;
1&
#670000000000
0&
#675000000000
b10010 ;
1&
#680000000000
0&
#685000000000
b10011 ;
1&
#690000000000
0&
#695000000000
b10100 ;
1&
#700000000000
0&
#705000000000
b10101 ;
1&
#710000000000
0&
#715000000000
b10110 ;
1&
#720000000000
0&
#725000000000
b10111 ;
1&
#730000000000
0&
#735000000000
b11000 ;
1&
#740000000000
0&
#745000000000
b11001 ;
1&
#750000000000
0&
#755000000000
b11010 ;
1&
#760000000000
0&
#765000000000
b11011 ;
1&
#770000000000
0&
#775000000000
b11100 ;
1&
#780000000000
0&
#785000000000
b11101 ;
1&
#790000000000
0&
#795000000000
b11110 ;
1&
#800000000000
0&
#805000000000
b11111 ;
1&
#810000000000
0&
#815000000000
b100000 ;
1&
#820000000000
0&
#825000000000
b100001 ;
1&
#830000000000
0&
#835000000000
b100010 ;
1&
#840000000000
0&
#845000000000
b100011 ;
1&
#850000000000
0&
#855000000000
b100100 ;
1&
#860000000000
0&
#865000000000
b100101 ;
1&
#870000000000
0&
#875000000000
b100110 ;
1&
#880000000000
0&
#885000000000
b100111 ;
1&
#890000000000
0&
#895000000000
b101000 ;
1&
#900000000000
0&
#905000000000
b101001 ;
1&
#910000000000
0&
#915000000000
b101010 ;
1&
#920000000000
0&
#925000000000
b101011 ;
1&
#930000000000
0&
#935000000000
b101100 ;
1&
#940000000000
0&
#945000000000
b101101 ;
1&
#950000000000
0&
#955000000000
b101110 ;
1&
#960000000000
0&
#965000000000
b101111 ;
1&
#970000000000
0&
#975000000000
b110000 ;
1&
#980000000000
0&
#985000000000
b110001 ;
1&
#990000000000
0&
#995000000000
01
08
b0 ;
1&
#1000000000000
0&
#1005000000000
b1 ;
1&
#1010000000000
0&
#1015000000000
b10 ;
1&
#1020000000000
0&
#1025000000000
b11 ;
1&
#1030000000000
0&
#1035000000000
b100 ;
1&
#1040000000000
0&
#1045000000000
b101 ;
1&
#1050000000000
0&
#1055000000000
b110 ;
1&
#1060000000000
0&
#1065000000000
b111 ;
1&
#1070000000000
0&
#1075000000000
b1000 ;
1&
#1080000000000
0&
#1085000000000
b1001 ;
1&
#1090000000000
0&
#1095000000000
b1010 ;
1&
#1100000000000
0&
#1105000000000
b1011 ;
1&
#1110000000000
0&
#1115000000000
b1100 ;
1&
#1120000000000
0&
#1125000000000
b1101 ;
1&
#1130000000000
0&
#1135000000000
b1110 ;
1&
#1140000000000
0&
#1145000000000
b1111 ;
1&
#1150000000000
0&
#1155000000000
b10000 ;
1&
#1160000000000
0&
#1165000000000
b10001 ;
1&
#1170000000000
0&
#1175000000000
b10010 ;
1&
#1180000000000
0&
#1185000000000
b10011 ;
1&
#1190000000000
0&
#1195000000000
b10100 ;
1&
#1200000000000
0&
#1205000000000
b10101 ;
1&
#1210000000000
0&
#1215000000000
b10110 ;
1&
#1220000000000
0&
#1225000000000
b10111 ;
1&
#1230000000000
0&
#1235000000000
b11000 ;
1&
#1240000000000
0&
#1245000000000
b11001 ;
1&
#1250000000000
0&
#1255000000000
b11010 ;
1&
#1260000000000
0&
#1265000000000
b11011 ;
1&
#1270000000000
0&
#1275000000000
b11100 ;
1&
#1280000000000
0&
#1285000000000
b11101 ;
1&
#1290000000000
0&
#1295000000000
b11110 ;
1&
#1300000000000
0&
#1305000000000
b11111 ;
1&
#1310000000000
0&
#1315000000000
b100000 ;
1&
#1320000000000
0&
#1325000000000
b100001 ;
1&
#1330000000000
0&
#1335000000000
b100010 ;
1&
#1340000000000
0&
#1345000000000
b100011 ;
1&
#1350000000000
0&
#1355000000000
b100100 ;
1&
#1360000000000
0&
#1365000000000
b100101 ;
1&
#1370000000000
0&
#1375000000000
b100110 ;
1&
#1380000000000
0&
#1385000000000
b100111 ;
1&
#1390000000000
0&
#1395000000000
b101000 ;
1&
#1400000000000
0&
#1405000000000
b101001 ;
1&
#1410000000000
0&
#1415000000000
b101010 ;
1&
#1420000000000
0&
#1425000000000
b101011 ;
1&
#1430000000000
0&
#1435000000000
b101100 ;
1&
#1440000000000
0&
#1445000000000
b101101 ;
1&
#1450000000000
0&
#1455000000000
b101110 ;
1&
#1460000000000
0&
#1465000000000
b101111 ;
1&
#1470000000000
0&
#1475000000000
b110000 ;
1&
#1480000000000
0&
#1485000000000
b110001 ;
1&
#1490000000000
0&
#1495000000000
b1110000 "
b1110000 /
b1110000 A
b1110000 H
0W
b111 0
b111 B
b111 I
b111 Y
b111 ^
b111 _
11
18
b0 ;
1&
#1500000000000
0&
#1505000000000
b1 ;
1&
#1510000000000
0&
#1515000000000
b10 ;
1&
#1520000000000
0&
#1525000000000
b11 ;
1&
#1530000000000
0&
#1535000000000
b100 ;
1&
#1540000000000
0&
#1545000000000
b101 ;
1&
#1550000000000
0&
#1555000000000
b110 ;
1&
#1560000000000
0&
#1565000000000
b111 ;
1&
#1570000000000
0&
#1575000000000
b1000 ;
1&
#1580000000000
0&
#1585000000000
b1001 ;
1&
#1590000000000
0&
#1595000000000
b1010 ;
1&
#1600000000000
0&
#1605000000000
b1011 ;
1&
#1610000000000
0&
#1615000000000
b1100 ;
1&
#1620000000000
0&
#1625000000000
b1101 ;
1&
#1630000000000
0&
#1635000000000
b1110 ;
1&
#1640000000000
0&
#1645000000000
b1111 ;
1&
#1650000000000
0&
#1655000000000
b10000 ;
1&
#1660000000000
0&
#1665000000000
b10001 ;
1&
#1670000000000
0&
#1675000000000
b10010 ;
1&
#1680000000000
0&
#1685000000000
b10011 ;
1&
#1690000000000
0&
#1695000000000
b10100 ;
1&
#1700000000000
0&
#1705000000000
b10101 ;
1&
#1710000000000
0&
#1715000000000
b10110 ;
1&
#1720000000000
0&
#1725000000000
b10111 ;
1&
#1730000000000
0&
#1735000000000
b11000 ;
1&
#1740000000000
0&
#1745000000000
b11001 ;
1&
#1750000000000
0&
#1755000000000
b11010 ;
1&
#1760000000000
0&
#1765000000000
b11011 ;
1&
#1770000000000
0&
#1775000000000
b11100 ;
1&
#1780000000000
0&
#1785000000000
b11101 ;
1&
#1790000000000
0&
#1795000000000
b11110 ;
1&
#1800000000000
0&
#1805000000000
b11111 ;
1&
#1810000000000
0&
#1815000000000
b100000 ;
1&
#1820000000000
0&
#1825000000000
b100001 ;
1&
#1830000000000
0&
#1835000000000
b100010 ;
1&
#1840000000000
0&
#1845000000000
b100011 ;
1&
#1850000000000
0&
#1855000000000
b100100 ;
1&
#1860000000000
0&
#1865000000000
b100101 ;
1&
#1870000000000
0&
#1875000000000
b100110 ;
1&
#1880000000000
0&
#1885000000000
b100111 ;
1&
#1890000000000
0&
#1895000000000
b101000 ;
1&
#1900000000000
0&
#1905000000000
b101001 ;
1&
#1910000000000
0&
#1915000000000
b101010 ;
1&
#1920000000000
0&
#1925000000000
b101011 ;
1&
#1930000000000
0&
#1935000000000
b101100 ;
1&
#1940000000000
0&
#1945000000000
b101101 ;
1&
#1950000000000
0&
#1955000000000
b101110 ;
1&
#1960000000000
0&
#1965000000000
b101111 ;
1&
#1970000000000
0&
#1975000000000
b110000 ;
1&
#1980000000000
0&
#1985000000000
b110001 ;
1&
#1990000000000
0&
#1995000000000
01
08
b0 ;
1&
#2000000000000
0&
#2005000000000
b1 ;
1&
#2010000000000
0&
#2015000000000
b10 ;
1&
#2020000000000
0&
#2025000000000
b11 ;
1&
#2030000000000
0&
#2035000000000
b100 ;
1&
#2040000000000
0&
#2045000000000
b101 ;
1&
#2050000000000
0&
#2055000000000
b110 ;
1&
#2060000000000
0&
#2065000000000
b111 ;
1&
#2070000000000
0&
#2075000000000
b1000 ;
1&
#2080000000000
0&
#2085000000000
b1001 ;
1&
#2090000000000
0&
#2095000000000
b1010 ;
1&
#2100000000000
0&
#2105000000000
b1011 ;
1&
#2110000000000
0&
#2115000000000
b1100 ;
1&
#2120000000000
0&
#2125000000000
b1101 ;
1&
#2130000000000
0&
#2135000000000
b1110 ;
1&
#2140000000000
0&
#2145000000000
b1111 ;
1&
#2150000000000
0&
#2155000000000
b10000 ;
1&
#2160000000000
0&
#2165000000000
b10001 ;
1&
#2170000000000
0&
#2175000000000
b10010 ;
1&
#2180000000000
0&
#2185000000000
b10011 ;
1&
#2190000000000
0&
#2195000000000
b10100 ;
1&
#2200000000000
0&
#2205000000000
b10101 ;
1&
#2210000000000
0&
#2215000000000
b10110 ;
1&
#2220000000000
0&
#2225000000000
b10111 ;
1&
#2230000000000
0&
#2235000000000
b11000 ;
1&
#2240000000000
0&
#2245000000000
b11001 ;
1&
#2250000000000
0&
#2255000000000
b11010 ;
1&
#2260000000000
0&
#2265000000000
b11011 ;
1&
#2270000000000
0&
#2275000000000
b11100 ;
1&
#2280000000000
0&
#2285000000000
b11101 ;
1&
#2290000000000
0&
#2295000000000
b11110 ;
1&
#2300000000000
0&
#2305000000000
b11111 ;
1&
#2310000000000
0&
#2315000000000
b100000 ;
1&
#2320000000000
0&
#2325000000000
b100001 ;
1&
#2330000000000
0&
#2335000000000
b100010 ;
1&
#2340000000000
0&
#2345000000000
b100011 ;
1&
#2350000000000
0&
#2355000000000
b100100 ;
1&
#2360000000000
0&
#2365000000000
b100101 ;
1&
#2370000000000
0&
#2375000000000
b100110 ;
1&
#2380000000000
0&
#2385000000000
b100111 ;
1&
#2390000000000
0&
#2395000000000
b101000 ;
1&
#2400000000000
0&
#2405000000000
b101001 ;
1&
#2410000000000
0&
#2415000000000
b101010 ;
1&
#2420000000000
0&
#2425000000000
b101011 ;
1&
#2430000000000
0&
#2435000000000
b101100 ;
1&
#2440000000000
0&
#2445000000000
b101101 ;
1&
#2450000000000
0&
#2455000000000
b101110 ;
1&
#2460000000000
0&
#2465000000000
b101111 ;
1&
#2470000000000
0&
#2475000000000
b110000 ;
1&
#2480000000000
0&
#2485000000000
b110001 ;
1&
#2490000000000
0&
#2495000000000
b1011111 "
b1011111 /
b1011111 A
b1011111 H
b110 0
b110 B
b110 I
b110 Y
b110 ^
b110 _
11
18
b0 ;
1&
#2500000000000
0&
#2505000000000
b1 ;
1&
#2510000000000
0&
#2515000000000
b10 ;
1&
#2520000000000
0&
#2525000000000
b11 ;
1&
#2530000000000
0&
#2535000000000
b100 ;
1&
#2540000000000
0&
#2545000000000
b101 ;
1&
#2550000000000
0&
#2555000000000
b110 ;
1&
#2560000000000
0&
#2565000000000
b111 ;
1&
#2570000000000
0&
#2575000000000
b1000 ;
1&
#2580000000000
0&
#2585000000000
b1001 ;
1&
#2590000000000
0&
#2595000000000
b1010 ;
1&
#2600000000000
0&
#2605000000000
b1011 ;
1&
#2610000000000
0&
#2615000000000
b1100 ;
1&
#2620000000000
0&
#2625000000000
b1101 ;
1&
#2630000000000
0&
#2635000000000
b1110 ;
1&
#2640000000000
0&
#2645000000000
b1111 ;
1&
#2650000000000
0&
#2655000000000
b10000 ;
1&
#2660000000000
0&
#2665000000000
b10001 ;
1&
#2670000000000
0&
#2675000000000
b10010 ;
1&
#2680000000000
0&
#2685000000000
b10011 ;
1&
#2690000000000
0&
#2695000000000
b10100 ;
1&
#2700000000000
0&
#2705000000000
b10101 ;
1&
#2710000000000
0&
#2715000000000
b10110 ;
1&
#2720000000000
0&
#2725000000000
b10111 ;
1&
#2730000000000
0&
#2735000000000
b11000 ;
1&
#2740000000000
0&
#2745000000000
b11001 ;
1&
#2750000000000
0&
#2755000000000
b11010 ;
1&
#2760000000000
0&
#2765000000000
b11011 ;
1&
#2770000000000
0&
#2775000000000
b11100 ;
1&
#2780000000000
0&
#2785000000000
b11101 ;
1&
#2790000000000
0&
#2795000000000
b11110 ;
1&
#2800000000000
0&
#2805000000000
b11111 ;
1&
#2810000000000
0&
#2815000000000
b100000 ;
1&
#2820000000000
0&
#2825000000000
b100001 ;
1&
#2830000000000
0&
#2835000000000
b100010 ;
1&
#2840000000000
0&
#2845000000000
b100011 ;
1&
#2850000000000
0&
#2855000000000
b100100 ;
1&
#2860000000000
0&
#2865000000000
b100101 ;
1&
#2870000000000
0&
#2875000000000
b100110 ;
1&
#2880000000000
0&
#2885000000000
b100111 ;
1&
#2890000000000
0&
#2895000000000
b101000 ;
1&
#2900000000000
0&
#2905000000000
b101001 ;
1&
#2910000000000
0&
#2915000000000
b101010 ;
1&
#2920000000000
0&
#2925000000000
b101011 ;
1&
#2930000000000
0&
#2935000000000
b101100 ;
1&
#2940000000000
0&
#2945000000000
b101101 ;
1&
#2950000000000
0&
#2955000000000
b101110 ;
1&
#2960000000000
0&
#2965000000000
b101111 ;
1&
#2970000000000
0&
#2975000000000
b110000 ;
1&
#2980000000000
0&
#2985000000000
b110001 ;
1&
#2990000000000
0&
#2995000000000
01
08
b0 ;
1&
#3000000000000
0&
#3005000000000
b1 ;
1&
#3010000000000
0&
#3015000000000
b10 ;
1&
#3020000000000
0&
#3025000000000
b11 ;
1&
#3030000000000
0&
#3035000000000
b100 ;
1&
#3040000000000
0&
#3045000000000
b101 ;
1&
#3050000000000
0&
#3055000000000
b110 ;
1&
#3060000000000
0&
#3065000000000
b111 ;
1&
#3070000000000
0&
#3075000000000
b1000 ;
1&
#3080000000000
0&
#3085000000000
b1001 ;
1&
#3090000000000
0&
#3095000000000
b1010 ;
1&
#3100000000000
0&
#3105000000000
b1011 ;
1&
#3110000000000
0&
#3115000000000
b1100 ;
1&
#3120000000000
0&
#3125000000000
b1101 ;
1&
#3130000000000
0&
#3135000000000
b1110 ;
1&
#3140000000000
0&
#3145000000000
b1111 ;
1&
#3150000000000
0&
#3155000000000
b10000 ;
1&
#3160000000000
0&
#3165000000000
b10001 ;
1&
#3170000000000
0&
#3175000000000
b10010 ;
1&
#3180000000000
0&
#3185000000000
b10011 ;
1&
#3190000000000
0&
#3195000000000
b10100 ;
1&
#3200000000000
0&
#3205000000000
b10101 ;
1&
#3210000000000
0&
#3215000000000
b10110 ;
1&
#3220000000000
0&
#3225000000000
b10111 ;
1&
#3230000000000
0&
#3235000000000
b11000 ;
1&
#3240000000000
0&
#3245000000000
b11001 ;
1&
#3250000000000
0&
#3255000000000
b11010 ;
1&
#3260000000000
0&
#3265000000000
b11011 ;
1&
#3270000000000
0&
#3275000000000
b11100 ;
1&
#3280000000000
0&
#3285000000000
b11101 ;
1&
#3290000000000
0&
#3295000000000
b11110 ;
1&
#3300000000000
0&
#3305000000000
b11111 ;
1&
#3310000000000
0&
#3315000000000
b100000 ;
1&
#3320000000000
0&
#3325000000000
b100001 ;
1&
#3330000000000
0&
#3335000000000
b100010 ;
1&
#3340000000000
0&
#3345000000000
b100011 ;
1&
#3350000000000
0&
#3355000000000
b100100 ;
1&
#3360000000000
0&
#3365000000000
b100101 ;
1&
#3370000000000
0&
#3375000000000
b100110 ;
1&
#3380000000000
0&
#3385000000000
b100111 ;
1&
#3390000000000
0&
#3395000000000
b101000 ;
1&
#3400000000000
0&
#3405000000000
b101001 ;
1&
#3410000000000
0&
#3415000000000
b101010 ;
1&
#3420000000000
0&
#3425000000000
b101011 ;
1&
#3430000000000
0&
#3435000000000
b101100 ;
1&
#3440000000000
0&
#3445000000000
b101101 ;
1&
#3450000000000
0&
#3455000000000
b101110 ;
1&
#3460000000000
0&
#3465000000000
b101111 ;
1&
#3470000000000
0&
#3475000000000
b110000 ;
1&
#3480000000000
0&
#3485000000000
b110001 ;
1&
#3490000000000
0&
#3495000000000
b1011011 "
b1011011 /
b1011011 A
b1011011 H
b101 0
b101 B
b101 I
b101 Y
b101 ^
b101 _
11
18
b0 ;
1&
#3500000000000
0&
#3505000000000
b1 ;
1&
#3510000000000
0&
#3515000000000
b10 ;
1&
#3520000000000
0&
#3525000000000
b11 ;
1&
#3530000000000
0&
#3535000000000
b100 ;
1&
#3540000000000
0&
#3545000000000
b101 ;
1&
#3550000000000
0&
#3555000000000
b110 ;
1&
#3560000000000
0&
#3565000000000
b111 ;
1&
#3570000000000
0&
#3575000000000
b1000 ;
1&
#3580000000000
0&
#3585000000000
b1001 ;
1&
#3590000000000
0&
#3595000000000
b1010 ;
1&
#3600000000000
0&
#3605000000000
b1011 ;
1&
#3610000000000
0&
#3615000000000
b1100 ;
1&
#3620000000000
0&
#3625000000000
b1101 ;
1&
#3630000000000
0&
#3635000000000
b1110 ;
1&
#3640000000000
0&
#3645000000000
b1111 ;
1&
#3650000000000
0&
#3655000000000
b10000 ;
1&
#3660000000000
0&
#3665000000000
b10001 ;
1&
#3670000000000
0&
#3675000000000
b10010 ;
1&
#3680000000000
0&
#3685000000000
b10011 ;
1&
#3690000000000
0&
#3695000000000
b10100 ;
1&
#3700000000000
0&
#3705000000000
b10101 ;
1&
#3710000000000
0&
#3715000000000
b10110 ;
1&
#3720000000000
0&
#3725000000000
b10111 ;
1&
#3730000000000
0&
#3735000000000
b11000 ;
1&
#3740000000000
0&
#3745000000000
b11001 ;
1&
#3750000000000
0&
#3755000000000
b11010 ;
1&
#3760000000000
0&
#3765000000000
b11011 ;
1&
#3770000000000
0&
#3775000000000
b11100 ;
1&
#3780000000000
0&
#3785000000000
b11101 ;
1&
#3790000000000
0&
#3795000000000
b11110 ;
1&
#3800000000000
0&
#3805000000000
b11111 ;
1&
#3810000000000
0&
#3815000000000
b100000 ;
1&
#3820000000000
0&
#3825000000000
b100001 ;
1&
#3830000000000
0&
#3835000000000
b100010 ;
1&
#3840000000000
0&
#3845000000000
b100011 ;
1&
#3850000000000
0&
#3855000000000
b100100 ;
1&
#3860000000000
0&
#3865000000000
b100101 ;
1&
#3870000000000
0&
#3875000000000
b100110 ;
1&
#3880000000000
0&
#3885000000000
b100111 ;
1&
#3890000000000
0&
#3895000000000
b101000 ;
1&
#3900000000000
0&
#3905000000000
b101001 ;
1&
#3910000000000
0&
#3915000000000
b101010 ;
1&
#3920000000000
0&
#3925000000000
b101011 ;
1&
#3930000000000
0&
#3935000000000
b101100 ;
1&
#3940000000000
0&
#3945000000000
b101101 ;
1&
#3950000000000
0&
#3955000000000
b101110 ;
1&
#3960000000000
0&
#3965000000000
b101111 ;
1&
#3970000000000
0&
#3975000000000
b110000 ;
1&
#3980000000000
0&
#3985000000000
b110001 ;
1&
#3990000000000
0&
#3995000000000
01
08
b0 ;
1&
#4000000000000
0&
#4005000000000
b1 ;
1&
#4010000000000
0&
#4015000000000
b10 ;
1&
#4020000000000
0&
#4025000000000
b11 ;
1&
#4030000000000
0&
#4035000000000
b100 ;
1&
#4040000000000
0&
#4045000000000
b101 ;
1&
#4050000000000
0&
#4055000000000
b110 ;
1&
#4060000000000
0&
#4065000000000
b111 ;
1&
#4070000000000
0&
#4075000000000
b1000 ;
1&
#4080000000000
0&
#4085000000000
b1001 ;
1&
#4090000000000
0&
#4095000000000
b1010 ;
1&
#4100000000000
0&
#4105000000000
b1011 ;
1&
#4110000000000
0&
#4115000000000
b1100 ;
1&
#4120000000000
0&
#4125000000000
b1101 ;
1&
#4130000000000
0&
#4135000000000
b1110 ;
1&
#4140000000000
0&
#4145000000000
b1111 ;
1&
#4150000000000
0&
#4155000000000
b10000 ;
1&
#4160000000000
0&
#4165000000000
b10001 ;
1&
#4170000000000
0&
#4175000000000
b10010 ;
1&
#4180000000000
0&
#4185000000000
b10011 ;
1&
#4190000000000
0&
#4195000000000
b10100 ;
1&
#4200000000000
0&
#4205000000000
b10101 ;
1&
#4210000000000
0&
#4215000000000
b10110 ;
1&
#4220000000000
0&
#4225000000000
b10111 ;
1&
#4230000000000
0&
#4235000000000
b11000 ;
1&
#4240000000000
0&
#4245000000000
b11001 ;
1&
#4250000000000
0&
#4255000000000
b11010 ;
1&
#4260000000000
0&
#4265000000000
b11011 ;
1&
#4270000000000
0&
#4275000000000
b11100 ;
1&
#4280000000000
0&
#4285000000000
b11101 ;
1&
#4290000000000
0&
#4295000000000
b11110 ;
1&
#4300000000000
0&
#4305000000000
b11111 ;
1&
#4310000000000
0&
#4315000000000
b100000 ;
1&
#4320000000000
0&
