wave/timer.vcd
$date
	Thu Apr 29 11:52:04 2021
$end
$version
	Icarus Verilog
$end
$timescale
	1ps
$end
$scope module timer_tb $end
$var wire 1 ! zero $end
$var wire 4 " sec_tens [3:0] $end
$var wire 4 # sec_ones [3:0] $end
$var wire 4 $ mins [3:0] $end
$var reg 1 % clock $end
$var reg 1 & clrn $end
$var reg 1 ' en $end
$var reg 4 ( in [3:0] $end
$var reg 1 ) loadn $end
$scope module DUT $end
$var wire 1 % clock $end
$var wire 1 & clrn $end
$var wire 4 * data [3:0] $end
$var wire 1 ' en $end
$var wire 1 ) loadn $end
$var wire 1 + zero3 $end
$var wire 1 , zero2 $end
$var wire 1 - zero1 $end
$var wire 1 . useless $end
$var wire 1 / tens_to_min $end
$var wire 1 0 sec_to_tens $end
$var wire 4 1 sec_tens [3:0] $end
$var wire 4 2 sec_ones [3:0] $end
$var wire 4 3 mins [3:0] $end
$var reg 1 ! zero $end
$scope module minutes $end
$var wire 1 % clk $end
$var wire 1 & clrn $end
$var wire 1 ) loadn $end
$var wire 1 . tc $end
$var wire 1 / en $end
$var wire 4 4 data [3:0] $end
$var reg 4 5 out [3:0] $end
$var reg 1 + zero $end
$upscope $end
$scope module seconds $end
$var wire 1 % clk $end
$var wire 1 & clrn $end
$var wire 4 6 data [3:0] $end
$var wire 1 ' en $end
$var wire 1 ) loadn $end
$var wire 1 0 tc $end
$var reg 4 7 out [3:0] $end
$var reg 1 - zero $end
$upscope $end
$scope module ten_secs $end
$var wire 1 % clk $end
$var wire 1 & clrn $end
$var wire 4 8 data [3:0] $end
$var wire 1 0 en $end
$var wire 1 ) loadn $end
$var wire 1 / tc $end
$var reg 4 9 out [3:0] $end
$var reg 1 , zero $end
$upscope $end
$upscope $end
$upscope $end
$enddefinitions $end
#0
$dumpvars
b0 9
b0 8
b0 7
b1 6
b0 5
b0 4
b0 3
b0 2
b0 1
10
1/
1.
x-
x,
x+
b1 *
0)
b1 (
1'
1&
0%
b0 $
b0 #
b0 "
x!
$end
#5000000000
0.
0/
00
0!
0-
b1 #
b1 2
b1 7
b1 8
1,
1+
1%
#10000000000
0%
b1001 (
b1001 *
b1001 6
#15000000000
0,
b1 "
b1 1
b1 4
b1 9
b1001 #
b1001 2
b1001 7
b1001 8
1%
#20000000000
0%
#25000000000
b1001 "
b1001 1
b1001 4
b1001 9
0+
b1 $
b1 3
b1 5
1%
#30000000000
0%
1)
#35000000000
b1000 #
b1000 2
b1000 7
b1000 8
1%
#40000000000
0%
#45000000000
00
b111 #
b111 2
b111 7
b111 8
1%
#50000000000
0%
#55000000000
b110 #
b110 2
b110 7
b110 8
1%
#60000000000
0%
#65000000000
b101 #
b101 2
b101 7
b101 8
1%
#70000000000
0%
#75000000000
b100 #
b100 2
b100 7
b100 8
1%
#80000000000
0%
#85000000000
00
b11 #
b11 2
b11 7
b11 8
1%
#90000000000
0%
#95000000000
b10 #
b10 2
b10 7
b10 8
1%
#100000000000
0%
#105000000000
00
b1 #
b1 2
b1 7
b1 8
1%
#110000000000
0%
#115000000000
10
1-
b0 #
b0 2
b0 7
b0 8
1%
#120000000000
0%
#125000000000
00
0-
b1001 #
b1001 2
b1001 7
b1001 8
b1000 "
b1000 1
b1000 4
b1000 9
1%
#130000000000
0%
#135000000000
b1000 #
b1000 2
b1000 7
b1000 8
1%
#140000000000
0%
#145000000000
00
b111 #
b111 2
b111 7
b111 8
1%
#150000000000
0%
#155000000000
b110 #
b110 2
b110 7
b110 8
1%
#160000000000
0%
#165000000000
b101 #
b101 2
b101 7
b101 8
1%
#170000000000
0%
#175000000000
b100 #
b100 2
b100 7
b100 8
1%
#180000000000
0%
#185000000000
00
b11 #
b11 2
b11 7
b11 8
1%
#190000000000
0%
#195000000000
b10 #
b10 2
b10 7
b10 8
1%
#200000000000
0%
#205000000000
00
b1 #
b1 2
b1 7
b1 8
1%
#210000000000
0%
#215000000000
10
1-
b0 #
b0 2
b0 7
b0 8
1%
#220000000000
0%
#225000000000
00
0/
0-
b1001 #
b1001 2
b1001 7
b1001 8
b111 "
b111 1
b111 4
b111 9
1%
#230000000000
0%
#235000000000
b1000 #
b1000 2
b1000 7
b1000 8
1%
#240000000000
0%
#245000000000
00
b111 #
b111 2
b111 7
b111 8
1%
#250000000000
0%
#255000000000
b110 #
b110 2
b110 7
b110 8
1%
#260000000000
0%
#265000000000
b101 #
b101 2
b101 7
b101 8
1%
#270000000000
0%
#275000000000
b100 #
b100 2
b100 7
b100 8
1%
#280000000000
0%
#285000000000
00
b11 #
b11 2
b11 7
b11 8
1%
#290000000000
0%
#295000000000
b10 #
b10 2
b10 7
b10 8
1%
#300000000000
0%
#305000000000
00
b1 #
b1 2
b1 7
b1 8
1%
#310000000000
0%
#315000000000
10
1-
b0 #
b0 2
b0 7
b0 8
1%
#320000000000
0%
#325000000000
00
0-
b1001 #
b1001 2
b1001 7
b1001 8
b110 "
b110 1
b110 4
b110 9
1%
#330000000000
0%
#335000000000
b1000 #
b1000 2
b1000 7
b1000 8
1%
#340000000000
0%
#345000000000
00
b111 #
b111 2
b111 7
b111 8
1%
#350000000000
0%
#355000000000
b110 #
b110 2
b110 7
b110 8
1%
#360000000000
0%
#365000000000
b101 #
b101 2
b101 7
b101 8
1%
#370000000000
0%
#375000000000
b100 #
b100 2
b100 7
b100 8
1%
#380000000000
0%
#385000000000
00
b11 #
b11 2
b11 7
b11 8
1%
#390000000000
0%
#395000000000
b10 #
b10 2
b10 7
b10 8
1%
#400000000000
0%
#405000000000
00
b1 #
b1 2
b1 7
b1 8
1%
#410000000000
0%
#415000000000
10
1-
b0 #
b0 2
b0 7
b0 8
1%
#420000000000
0%
#425000000000
00
0-
b1001 #
b1001 2
b1001 7
b1001 8
b101 "
b101 1
b101 4
b101 9
1%
#430000000000
0%
#435000000000
b1000 #
b1000 2
b1000 7
b1000 8
1%
#440000000000
0%
#445000000000
00
b111 #
b111 2
b111 7
b111 8
1%
#450000000000
0%
#455000000000
b110 #
b110 2
b110 7
b110 8
1%
#460000000000
0%
#465000000000
b101 #
b101 2
b101 7
b101 8
1%
#470000000000
0%
#475000000000
b100 #
b100 2
b100 7
b100 8
1%
#480000000000
0%
#485000000000
00
b11 #
b11 2
b11 7
b11 8
1%
#490000000000
0%
#495000000000
b10 #
b10 2
b10 7
b10 8
1%
#500000000000
0%
#505000000000
00
b1 #
b1 2
b1 7
b1 8
1%
#510000000000
0%
#515000000000
10
1-
b0 #
b0 2
b0 7
b0 8
1%
#520000000000
0%
#525000000000
00
0-
b1001 #
b1001 2
b1001 7
b1001 8
b100 "
b100 1
b100 4
b100 9
1%
#530000000000
0%
#535000000000
b1000 #
b1000 2
b1000 7
b1000 8
1%
#540000000000
0%
#545000000000
00
b111 #
b111 2
b111 7
b111 8
1%
#550000000000
0%
#555000000000
b110 #
b110 2
b110 7
b110 8
1%
#560000000000
0%
#565000000000
b101 #
b101 2
b101 7
b101 8
1%
#570000000000
0%
#575000000000
b100 #
b100 2
b100 7
b100 8
1%
#580000000000
0%
#585000000000
00
b11 #
b11 2
b11 7
b11 8
1%
#590000000000
0%
#595000000000
b10 #
b10 2
b10 7
b10 8
1%
#600000000000
0%
#605000000000
00
b1 #
b1 2
b1 7
b1 8
1%
#610000000000
0%
#615000000000
10
1-
b0 #
b0 2
b0 7
b0 8
1%
#620000000000
0%
#625000000000
0/
00
0-
b1001 #
b1001 2
b1001 7
b1001 8
b11 "
b11 1
b11 4
b11 9
1%
#630000000000
0%
#635000000000
b1000 #
b1000 2
b1000 7
b1000 8
1%
#640000000000
0%
#645000000000
00
b111 #
b111 2
b111 7
b111 8
1%
#650000000000
0%
#655000000000
b110 #
b110 2
b110 7
b110 8
1%
#660000000000
0%
#665000000000
b101 #
b101 2
b101 7
b101 8
1%
#670000000000
0%
#675000000000
b100 #
b100 2
b100 7
b100 8
1%
#680000000000
0%
#685000000000
00
b11 #
b11 2
b11 7
b11 8
1%
#690000000000
0%
#695000000000
b10 #
b10 2
b10 7
b10 8
1%
#700000000000
0%
#705000000000
00
b1 #
b1 2
b1 7
b1 8
1%
#710000000000
0%
#715000000000
10
1-
b0 #
b0 2
b0 7
b0 8
1%
#720000000000
0%
#725000000000
00
0-
b1001 #
b1001 2
b1001 7
b1001 8
b10 "
b10 1
b10 4
b10 9
1%
#730000000000
0%
#735000000000
b1000 #
b1000 2
b1000 7
b1000 8
1%
#740000000000
0%
#745000000000
00
b111 #
b111 2
b111 7
b111 8
1%
#750000000000
0%
#755000000000
b110 #
b110 2
b110 7
b110 8
1%
#760000000000
0%
#765000000000
b101 #
b101 2
b101 7
b101 8
1%
#770000000000
0%
#775000000000
b100 #
b100 2
b100 7
b100 8
1%
#780000000000
0%
#785000000000
00
b11 #
b11 2
b11 7
b11 8
1%
#790000000000
0%
#795000000000
b10 #
b10 2
b10 7
b10 8
1%
#800000000000
0%
#805000000000
00
b1 #
b1 2
b1 7
b1 8
1%
#810000000000
0%
#815000000000
10
1-
b0 #
b0 2
b0 7
b0 8
1%
#820000000000
0%
#825000000000
0/
00
0-
b1001 #
b1001 2
b1001 7
b1001 8
b1 "
b1 1
b1 4
b1 9
1%
#830000000000
0%
#835000000000
b1000 #
b1000 2
b1000 7
b1000 8
1%
#840000000000
0%
#845000000000
00
b111 #
b111 2
b111 7
b111 8
1%
#850000000000
0%
#855000000000
b110 #
b110 2
b110 7
b110 8
1%
#860000000000
0%
#865000000000
b101 #
b101 2
b101 7
b101 8
1%
#870000000000
0%
#875000000000
b100 #
b100 2
b100 7
b100 8
1%
#880000000000
0%
#885000000000
00
b11 #
b11 2
b11 7
b11 8
1%
#890000000000
0%
#895000000000
b10 #
b10 2
b10 7
b10 8
1%
#900000000000
0%
#905000000000
00
b1 #
b1 2
b1 7
b1 8
1%
#910000000000
0%
#915000000000
10
1-
b0 #
b0 2
b0 7
b0 8
1%
#920000000000
0%
#925000000000
0/
00
0-
b1001 #
b1001 2
b1001 7
b1001 8
1,
b0 "
b0 1
b0 4
b0 9
1%
#930000000000
0%
#935000000000
b1000 #
b1000 2
b1000 7
b1000 8
1%
#940000000000
0%
#945000000000
0/
00
b111 #
b111 2
b111 7
b111 8
1%
#950000000000
0%
#955000000000
b110 #
b110 2
b110 7
b110 8
1%
#960000000000
0%
#965000000000
b101 #
b101 2
b101 7
b101 8
1%
#970000000000
0%
#975000000000
b100 #
b100 2
b100 7
b100 8
1%
#980000000000
0%
#985000000000
0/
00
b11 #
b11 2
b11 7
b11 8
1%
#990000000000
0%
#995000000000
b10 #
b10 2
b10 7
b10 8
1%
#1000000000000
0%
#1005000000000
0/
00
b1 #
b1 2
b1 7
b1 8
1%
#1010000000000
0%
#1015000000000
1/
10
1-
b0 #
b0 2
b0 7
b0 8
1%
#1020000000000
0%
#1025000000000
0.
0/
00
0-
b1001 #
b1001 2
b1001 7
b1001 8
0,
b101 "
b101 1
b101 4
b101 9
1+
b0 $
b0 3
b0 5
1%
#1030000000000
0%
#1035000000000
b1000 #
b1000 2
b1000 7
b1000 8
1%
#1040000000000
0%
#1045000000000
00
b111 #
b111 2
b111 7
b111 8
1%
#1050000000000
0%
#1055000000000
b110 #
b110 2
b110 7
b110 8
1%
#1060000000000
0%
#1065000000000
b101 #
b101 2
b101 7
b101 8
1%
#1070000000000
0%
#1075000000000
b100 #
b100 2
b100 7
b100 8
1%
#1080000000000
0%
#1085000000000
00
b11 #
b11 2
b11 7
b11 8
1%
#1090000000000
0%
#1095000000000
b10 #
b10 2
b10 7
b10 8
1%
#1100000000000
0%
#1105000000000
00
b1 #
b1 2
b1 7
b1 8
1%
#1110000000000
0%
#1115000000000
1.
1/
1!
1,
b0 "
b0 1
b0 4
b0 9
0&
10
1-
b0 #
b0 2
b0 7
b0 8
1%
